…
    ## Calculating cluster 0

    ## Calculating cluster 1

    ## Calculating cluster 2

``` r
b1.markers %>% group_by(cluster) %>% top_n(n = 10, wt = avg_log2FC)
```

    ## # A tibble: 30 x 7
    ## # Groups:   cluster [3]
    ##       p_val avg_log2FC pct.1 pct.2 p_val_adj cluster gene   
    ##       <dbl>      <dbl> <dbl> <dbl>     <dbl> <fct>   <chr>  
    ##  1 3.42e-66      1.33  0.98  0.689  4.12e-62 0       SLC30A8
    ##  2 9.45e-55      1.16  0.989 0.786  1.14e-50 0       ERO1B  
    ##  3 6.00e-54      1.38  0.973 0.748  7.23e-50 0       VGF    
    ##  4 2.11e-53      1.43  0.953 0.777  2.54e-49 0       PCSK1  
    ##  5 3.98e-52      1.17  0.98  0.827  4.79e-48 0       SCG2   
    ##  6 4.53e-51      1.34  1     0.997  5.45e-47 0       IAPP   
    ##  7 3.29e-50      1.42  0.905 0.604  3.95e-46 0       ABCC8  
    ##  8 1.01e-46      1.12  0.978 0.871  1.22e-42 0       PAM    
    ##  9 6.05e-46      1.33  0.985 0.877  7.28e-42 0       CHGA   
    ## 10 1.32e-38      0.965 0.955 0.814  1.58e-34 0       CHGB   
    ## # ... with 20 more rows
…
